{
    "KPlugin": {
        "Authors": [
            {
                "Email": "jgrulich@redhat.com",
                "Name": "Jan Grulich",
                "Name[ar]": "Jan Grulich",
                "Name[az]": "Jan Grulich",
                "Name[bg]": "Jan Grulich",
                "Name[ca@valencia]": "Jan Grulich",
                "Name[ca]": "Jan Grulich",
                "Name[cs]": "Jan Grulich",
                "Name[de]": "Jan Grulich",
                "Name[en_GB]": "Jan Grulich",
                "Name[es]": "Jan Grulich",
                "Name[eu]": "Jan Grulich",
                "Name[fi]": "Jan Grulich",
                "Name[fr]": "Jan Grulich",
                "Name[hu]": "Jan Grulich",
                "Name[ia]": "Jan Grulich",
                "Name[is]": "Jan Grulich",
                "Name[it]": "Jan Grulich",
                "Name[ka]": "Jan Grulich",
                "Name[ko]": "Jan Grulich",
                "Name[lt]": "Jan Grulich",
                "Name[nl]": "Jan Grulich",
                "Name[nn]": "Jan Gruhlich",
                "Name[pl]": "Jan Grulich",
                "Name[pt]": "Jan Grulich",
                "Name[pt_BR]": "Jan Grulich",
                "Name[ro]": "Jan Grulich",
                "Name[ru]": "Jan Grulich",
                "Name[sk]": "Jan Grulich",
                "Name[sl]": "Jan Grulich",
                "Name[sv]": "Jan Grulich",
                "Name[ta]": "ஜான் குரூலிச்",
                "Name[tr]": "Jan Grulich",
                "Name[uk]": "Jan Grulich",
                "Name[x-test]": "xxJan Grulichxx",
                "Name[zh_CN]": "Jan Grulich",
                "Name[zh_TW]": "Jan Grulich"
            }
        ],
        "Category": "VPNService",
        "Description": "Tunnel connections via DNS",
        "Description[ar]": "اتصالات مغلفة عن طريق DNS",
        "Description[az]": "DNS vasitəsi ilə tunel bağlantıları",
        "Description[bg]": "Тунелни връзки през DNS",
        "Description[ca@valencia]": "Túnel de connexions via DNS",
        "Description[ca]": "Túnel de connexions via DNS",
        "Description[cs]": "Spojení tunelem přes DNS",
        "Description[de]": "Getunnelte Verbindungen via DNS",
        "Description[en_GB]": "Tunnel connections via DNS",
        "Description[es]": "Conexiones de túnel que usan DNS",
        "Description[eu]": "Tunel konexioak DNS bidez",
        "Description[fi]": "Tunneliyhteydet DNS:n kautta",
        "Description[fr]": "Connexions en tunnel via DNS",
        "Description[hu]": "Tunnelkapcsolatok DNS-en keresztül",
        "Description[ia]": "Tunnel connexiones via DNS",
        "Description[is]": "Tunnel-tengingar í gegnum DNS",
        "Description[it]": "Incapsula le connessioni tramite DNS",
        "Description[ka]": "ტუნელური შეერთებები DNS-ის გავლით",
        "Description[ko]": "DNS로 연결 터널링",
        "Description[lt]": "Tunelio ryšiai per DNS",
        "Description[nl]": "Tunnelverbindingen via DNS",
        "Description[nn]": "Tunellsamband via DNS",
        "Description[pl]": "Połączenie tunelowe przez DNS",
        "Description[pt]": "Ligações-túnel através de DNS",
        "Description[pt_BR]": "Conexões túnel via DNS",
        "Description[ru]": "Протокол туннелирования iodine через DNS",
        "Description[sk]": "Tuneluje pripojenia prostredníctvom DNS",
        "Description[sl]": "Tuneliranje povezav preko DNS",
        "Description[sv]": "Tunnelanslutningar via DNS",
        "Description[tr]": "DNS üzerinden tünel bağlantıları",
        "Description[uk]": "Тунельоване з’єднання за допомогою DNS",
        "Description[x-test]": "xxTunnel connections via DNSxx",
        "Description[zh_CN]": "通过 DNS 的隧道链接",
        "Description[zh_TW]": "透過 DNS 的通道連線",
        "EnabledByDefault": false,
        "Icon": "",
        "Id": "plasmanetworkmanagement_iodineui",
        "License": "GPL",
        "Name": "Iodine DNS tunnel (iodine)",
        "Name[ar]": "نفق ايوداين (iodine) لـDNS",
        "Name[az]": "Iodine DNS tunnel (iodine)",
        "Name[bg]": "Iodine DNS тунел (iodine)",
        "Name[ca@valencia]": "Túnel de DNS Iodine (iodine)",
        "Name[ca]": "Túnel de DNS Iodine (iodine)",
        "Name[cs]": "Tunnel Iodine DNS (iodine)",
        "Name[da]": "Iodine DNS-tunnel (iodine)",
        "Name[de]": "Iodine DNS-Tunnel (iodine)",
        "Name[el]": "Διοχέτευση Iodine DNS (iodine)",
        "Name[en_GB]": "Iodine DNS tunnel (iodine)",
        "Name[es]": "Túnel DNS Iodine (iodine)",
        "Name[et]": "Iodine DNS-tunnel (iodine)",
        "Name[eu]": "Iodine DNS-tunela (iodine)",
        "Name[fi]": "Iodine-DNS-tunneli (iodine)",
        "Name[fr]": "Tunnel DNS Iodine (iodine)",
        "Name[gl]": "Túnel DNS de Iodine (iodine)",
        "Name[hu]": "Iodine DNS tunnel (iodine)",
        "Name[ia]": "Iodine DNS tunnel (iodine)",
        "Name[id]": "Iodine DNS tunnel (iodine)",
        "Name[is]": "Iodine DNS tunnel (iodine)",
        "Name[it]": "Tunnel DNS Iodine",
        "Name[ka]": "Iodine DNS tunnel (iodine)",
        "Name[ko]": "Iodine DNS 터널(iodine)",
        "Name[lt]": "Iodine DNS tunelis (iodine)",
        "Name[ml]": "Iodine DNS tunnel (iodine)",
        "Name[nl]": "Iodine DNS tunnel (iodine)",
        "Name[nn]": "Iodine DNS-tunell (iodine)",
        "Name[pa]": "ਆਈਓਡੀਨ DNS ਟਨਲ (iodine)",
        "Name[pl]": "Tunel Iodine DNS (iodine)",
        "Name[pt]": "Túnel de DNS do Iodine (iodine)",
        "Name[pt_BR]": "Túnel Iodine DNS (iodine)",
        "Name[ro]": "Tunel DNS Iodine (iodine)",
        "Name[ru]": "DNS-туннель iodine",
        "Name[sk]": "Iodine DNS tunel (iodine)",
        "Name[sl]": "Tunel DNS Iodine (iodine)",
        "Name[sr@ijekavian]": "Ајодинов ДНС тунеловање (Ајодин)",
        "Name[sr@ijekavianlatin]": "Iodineov DNS tunelovanje (Iodine)",
        "Name[sr@latin]": "Iodineov DNS tunelovanje (Iodine)",
        "Name[sr]": "Ајодинов ДНС тунеловање (Ајодин)",
        "Name[sv]": "Iodine DNS-tunnel (iodine)",
        "Name[tr]": "Iodine DNS tüneli (iodine)",
        "Name[uk]": "Тунель Iodine DNS (iodine)",
        "Name[x-test]": "xxIodine DNS tunnel (iodine)xx",
        "Name[zh_CN]": "Iodine DNS 隧道 (iodine)",
        "Name[zh_TW]": "Iodine DNS 通道 (iodine)",
        "Version": "0.1",
        "Website": ""
    },
    "X-NetworkManager-Services": "org.freedesktop.NetworkManager.iodine"
}
